{
    "name": "ray_a/php-extension",
    "repositories": [
        {
            "type": "composer",
            "url": "https://ray_a@bitbucket.org/php-extension.git"
        }
    ],
    "require-all": true
}
